{
    "items": [
        {
            "album": {
                "album_type": "ALBUM",
                "artists": [
                    {
                        "external_urls": {
                            "spotify": "https://open.spotify.com/artist/3mIj9lX2MWuHmhNCA7LSCW"
                        },
                        "href": "https://api.spotify.com/v1/artists/3mIj9lX2MWuHmhNCA7LSCW",
                        "id": "3mIj9lX2MWuHmhNCA7LSCW",
                        "name": "The 1975",
                        "type": "artist",
                        "uri": "spotify:artist:3mIj9lX2MWuHmhNCA7LSCW"
                    }
                ],
                "available_markets": [
                    "AD",
                    "AE",
                    "AR",
                    "AT",
                    "AU",
                    "BE",
                    "BG",
                    "BH",
                    "BO",
                    "BR",
                    "CA",
                    "CH",
                    "CL",
                    "CO",
                    "CR",
                    "CY",
                    "CZ",
                    "DE",
                    "DK",
                    "DO",
                    "DZ",
                    "EC",
                    "EE",
                    "EG",
                    "ES",
                    "FI",
                    "FR",
                    "GB",
                    "GR",
                    "GT",
                    "HK",
                    "HN",
                    "HU",
                    "ID",
                    "IE",
                    "IL",
                    "IN",
                    "IS",
                    "IT",
                    "JO",
                    "JP",
                    "KW",
                    "LB",
                    "LI",
                    "LT",
                    "LU",
                    "LV",
                    "MA",
                    "MC",
                    "MT",
                    "MX",
                    "MY",
                    "NI",
                    "NL",
                    "NO",
                    "NZ",
                    "OM",
                    "PA",
                    "PE",
                    "PH",
                    "PL",
                    "PS",
                    "PT",
                    "PY",
                    "QA",
                    "RO",
                    "SA",
                    "SE",
                    "SG",
                    "SK",
                    "SV",
                    "TH",
                    "TN",
                    "TR",
                    "TW",
                    "US",
                    "UY",
                    "VN",
                    "ZA"
                ],
                "external_urls": {
                    "spotify": "https://open.spotify.com/album/6dVCpQ7oGJD1oYs2fv1t5M"
                },
                "href": "https://api.spotify.com/v1/albums/6dVCpQ7oGJD1oYs2fv1t5M",
                "id": "6dVCpQ7oGJD1oYs2fv1t5M",
                "images": [
                    {
                        "height": 640,
                        "url": "https://i.scdn.co/image/ab67616d0000b2731f44db452a68e229650a302c",
                        "width": 640
                    },
                    {
                        "height": 300,
                        "url": "https://i.scdn.co/image/ab67616d00001e021f44db452a68e229650a302c",
                        "width": 300
                    },
                    {
                        "height": 64,
                        "url": "https://i.scdn.co/image/ab67616d000048511f44db452a68e229650a302c",
                        "width": 64
                    }
                ],
                "name": "Being Funny In A Foreign Language",
                "release_date": "2022-10-14",
                "release_date_precision": "day",
                "total_tracks": 11,
                "type": "album",
                "uri": "spotify:album:6dVCpQ7oGJD1oYs2fv1t5M"
            },
            "artists": [
                {
                    "external_urls": {
                        "spotify": "https://open.spotify.com/artist/3mIj9lX2MWuHmhNCA7LSCW"
                    },
                    "href": "https://api.spotify.com/v1/artists/3mIj9lX2MWuHmhNCA7LSCW",
                    "id": "3mIj9lX2MWuHmhNCA7LSCW",
                    "name": "The 1975",
                    "type": "artist",
                    "uri": "spotify:artist:3mIj9lX2MWuHmhNCA7LSCW"
                }
            ],
            "available_markets": [
                "AD",
                "AE",
                "AR",
                "AT",
                "AU",
                "BE",
                "BG",
                "BH",
                "BO",
                "BR",
                "CA",
                "CH",
                "CL",
                "CO",
                "CR",
                "CY",
                "CZ",
                "DE",
                "DK",
                "DO",
                "DZ",
                "EC",
                "EE",
                "EG",
                "ES",
                "FI",
                "FR",
                "GB",
                "GR",
                "GT",
                "HK",
                "HN",
                "HU",
                "ID",
                "IE",
                "IL",
                "IN",
                "IS",
                "IT",
                "JO",
                "JP",
                "KW",
                "LB",
                "LI",
                "LT",
                "LU",
                "LV",
                "MA",
                "MC",
                "MT",
                "MX",
                "MY",
                "NI",
                "NL",
                "NO",
                "NZ",
                "OM",
                "PA",
                "PE",
                "PH",
                "PL",
                "PS",
                "PT",
                "PY",
                "QA",
                "RO",
                "SA",
                "SE",
                "SG",
                "SK",
                "SV",
                "TH",
                "TN",
                "TR",
                "TW",
                "US",
                "UY",
                "VN",
                "ZA"
            ],
            "disc_number": 1,
            "duration_ms": 303903,
            "explicit": false,
            "external_ids": {
                "isrc": "GBK3W2202313"
            },
            "external_urls": {
                "spotify": "https://open.spotify.com/track/35lxFAny9XDBkvE6r9j4uG"
            },
            "href": "https://api.spotify.com/v1/tracks/35lxFAny9XDBkvE6r9j4uG",
            "id": "35lxFAny9XDBkvE6r9j4uG",
            "is_local": false,
            "name": "Happiness",
            "popularity": 72,
            "preview_url": "https://p.scdn.co/mp3-preview/9efe22359bfa3c80f6c1a1d840fc84d2f3f00d85?cid=774b29d4f13844c495f206cafdad9c86",
            "track_number": 2,
            "type": "track",
            "uri": "spotify:track:35lxFAny9XDBkvE6r9j4uG"
        },
        {
            "album": {
                "album_type": "ALBUM",
                "artists": [
                    {
                        "external_urls": {
                            "spotify": "https://open.spotify.com/artist/3mIj9lX2MWuHmhNCA7LSCW"
                        },
                        "href": "https://api.spotify.com/v1/artists/3mIj9lX2MWuHmhNCA7LSCW",
                        "id": "3mIj9lX2MWuHmhNCA7LSCW",
                        "name": "The 1975",
                        "type": "artist",
                        "uri": "spotify:artist:3mIj9lX2MWuHmhNCA7LSCW"
                    }
                ],
                "available_markets": [
                    "AD",
                    "AE",
                    "AR",
                    "AT",
                    "BE",
                    "BG",
                    "BH",
                    "BO",
                    "BR",
                    "CA",
                    "CH",
                    "CL",
                    "CO",
                    "CR",
                    "CY",
                    "CZ",
                    "DE",
                    "DK",
                    "DO",
                    "DZ",
                    "EC",
                    "EE",
                    "EG",
                    "ES",
                    "FI",
                    "FR",
                    "GB",
                    "GR",
                    "GT",
                    "HK",
                    "HN",
                    "HU",
                    "ID",
                    "IE",
                    "IL",
                    "IN",
                    "IS",
                    "IT",
                    "JO",
                    "JP",
                    "KW",
                    "LB",
                    "LI",
                    "LT",
                    "LU",
                    "LV",
                    "MA",
                    "MC",
                    "MT",
                    "MX",
                    "MY",
                    "NI",
                    "NL",
                    "NO",
                    "OM",
                    "PA",
                    "PE",
                    "PH",
                    "PL",
                    "PS",
                    "PT",
                    "PY",
                    "QA",
                    "RO",
                    "SA",
                    "SE",
                    "SG",
                    "SK",
                    "SV",
                    "TH",
                    "TN",
                    "TR",
                    "TW",
                    "US",
                    "UY",
                    "VN",
                    "ZA"
                ],
                "external_urls": {
                    "spotify": "https://open.spotify.com/album/0o5xjCboti8vXhdoUG9LYi"
                },
                "href": "https://api.spotify.com/v1/albums/0o5xjCboti8vXhdoUG9LYi",
                "id": "0o5xjCboti8vXhdoUG9LYi",
                "images": [
                    {
                        "height": 640,
                        "url": "https://i.scdn.co/image/ab67616d0000b2734400af0debecb047939c9254",
                        "width": 640
                    },
                    {
                        "height": 300,
                        "url": "https://i.scdn.co/image/ab67616d00001e024400af0debecb047939c9254",
                        "width": 300
                    },
                    {
                        "height": 64,
                        "url": "https://i.scdn.co/image/ab67616d000048514400af0debecb047939c9254",
                        "width": 64
                    }
                ],
                "name": "Notes On A Conditional Form",
                "release_date": "2020-05-22",
                "release_date_precision": "day",
                "total_tracks": 22,
                "type": "album",
                "uri": "spotify:album:0o5xjCboti8vXhdoUG9LYi"
            },
            "artists": [
                {
                    "external_urls": {
                        "spotify": "https://open.spotify.com/artist/3mIj9lX2MWuHmhNCA7LSCW"
                    },
                    "href": "https://api.spotify.com/v1/artists/3mIj9lX2MWuHmhNCA7LSCW",
                    "id": "3mIj9lX2MWuHmhNCA7LSCW",
                    "name": "The 1975",
                    "type": "artist",
                    "uri": "spotify:artist:3mIj9lX2MWuHmhNCA7LSCW"
                }
            ],
            "available_markets": [
                "AD",
                "AE",
                "AR",
                "AT",
                "BE",
                "BG",
                "BH",
                "BO",
                "BR",
                "CA",
                "CH",
                "CL",
                "CO",
                "CR",
                "CY",
                "CZ",
                "DE",
                "DK",
                "DO",
                "DZ",
                "EC",
                "EE",
                "EG",
                "ES",
                "FI",
                "FR",
                "GB",
                "GR",
                "GT",
                "HK",
                "HN",
                "HU",
                "ID",
                "IE",
                "IL",
                "IN",
                "IS",
                "IT",
                "JO",
                "JP",
                "KW",
                "LB",
                "LI",
                "LT",
                "LU",
                "LV",
                "MA",
                "MC",
                "MT",
                "MX",
                "MY",
                "NI",
                "NL",
                "NO",
                "OM",
                "PA",
                "PE",
                "PH",
                "PL",
                "PS",
                "PT",
                "PY",
                "QA",
                "RO",
                "SA",
                "SE",
                "SG",
                "SK",
                "SV",
                "TH",
                "TN",
                "TR",
                "TW",
                "US",
                "UY",
                "VN",
                "ZA"
            ],
            "disc_number": 1,
            "duration_ms": 319370,
            "explicit": false,
            "external_ids": {
                "isrc": "GBK3W1901077"
            },
            "external_urls": {
                "spotify": "https://open.spotify.com/track/1C5utO1I8FoSIn6g1R5DAZ"
            },
            "href": "https://api.spotify.com/v1/tracks/1C5utO1I8FoSIn6g1R5DAZ",
            "id": "1C5utO1I8FoSIn6g1R5DAZ",
            "is_local": false,
            "name": "If You’re Too Shy (Let Me Know)",
            "popularity": 66,
            "preview_url": "https://p.scdn.co/mp3-preview/626472e84395a730deced5f7887d2359ee89a506?cid=774b29d4f13844c495f206cafdad9c86",
            "track_number": 16,
            "type": "track",
            "uri": "spotify:track:1C5utO1I8FoSIn6g1R5DAZ"
        }
    ],
    "total": 50,
    "limit": 2,
    "offset": 0,
    "href": "https://api.spotify.com/v1/me/top/tracks?limit=2&offset=0&time_range=short_term",
    "previous": null,
    "next": "https://api.spotify.com/v1/me/top/tracks?limit=2&offset=2&time_range=short_term"
}